10
6791400
1646400
1425600
8575
185625
6480
1185408
6561
25
330750




#1 3 2 2 3 1
#2 6 1 2 3 0
#3 6 4 2 0 1
#4 0 0 2 3 0
#5 0 3 4 0 1
#6 4 4 1 0 0
#7 7 3 0 3 0
#8 0 8 0 0 0
#9 0 0 2 0 0
#10 1 3 3 2 0
